[gd_scene load_steps=3 format=2]

[ext_resource path="res://scenes/MeshInstance.tscn" type="PackedScene" id=1]

[sub_resource type="BoxShape" id=1]

extents = Vector3( 0.25, 0.25, 0.25 )

[node name="waterparticle" type="Area"]

input_ray_pickable = false
input_capture_on_drag = false
space_override = 0
gravity_point = false
gravity_distance_scale = 0.0
gravity_vec = Vector3( 0, -1, 0 )
gravity = 9.8
linear_damp = 0.1
angular_damp = 1.0
priority = 0.0
monitoring = true
monitorable = true
collision_layer = 1
collision_mask = 1
audio_bus_override = false
audio_bus_name = "Master"
reverb_bus_enable = false
reverb_bus_name = "Master"
reverb_bus_amount = 0.0
reverb_bus_uniformity = 0.0

[node name="CollisionShape" type="CollisionShape" parent="." index="0"]

shape = SubResource( 1 )
disabled = false

[node name="MeshInstance" parent="." index="1" instance=ExtResource( 1 )]


